draugr.torch\_utilities.optimisation.scheduling.learning\_rate\_utilities
=========================================================================

.. automodule:: draugr.torch_utilities.optimisation.scheduling.learning_rate_utilities

   
   
   

   
   
   .. rubric:: Functions

   .. autosummary::
      :toctree:
   
      set_lr
   
   

   
   
   

   
   
   



