draugr.opencv\_utilities.transformation.cv2\_transforms.CV2SwapChannels
=======================================================================

.. currentmodule:: draugr.opencv_utilities.transformation.cv2_transforms

.. autoclass:: CV2SwapChannels
   :members:
   :show-inheritance:
   :inherited-members:

   
   .. automethod:: __init__

   
   .. rubric:: Methods

   .. autosummary::
   
      ~CV2SwapChannels.__init__
   
   

   
   
   