draugr.torch\_utilities.optimisation.stopping.overfitting
=========================================================

.. automodule:: draugr.torch_utilities.optimisation.stopping.overfitting

   
   
   

   
   
   

   
   
   .. rubric:: Classes

   .. autosummary::
      :toctree:
      :template: custom_autosummary/class.rst
   
      ImprovementDetector
      OverfitDetector
   
   

   
   
   



