draugr.torch\_utilities.operations.torch\_transforms.batch\_transforms
======================================================================

.. automodule:: draugr.torch_utilities.operations.torch_transforms.batch_transforms

   
   
   

   
   
   

   
   
   .. rubric:: Classes

   .. autosummary::
      :toctree:
      :template: custom_autosummary/class.rst
   
      BatchToTensor
      BatchNormalize
      BatchRandomCrop
      BatchRandomHorizontalFlip
   
   

   
   
   



