draugr.torch\_utilities.writers.mixins
======================================

.. automodule:: draugr.torch_utilities.writers.mixins

   
   
   

   
   
   

   
   
   

   
   
   



.. rubric:: Modules

.. autosummary::
   :toctree:
   :template: custom_autosummary/module.rst
   :recursive:

   draugr.torch_utilities.writers.mixins.graph_writer_mixin

