draugr.writers.mixins.bar\_writer\_mixin.BarWriterMixin
=======================================================

.. currentmodule:: draugr.writers.mixins.bar_writer_mixin

.. autoclass:: BarWriterMixin
   :members:
   :show-inheritance:
   :inherited-members:

   
   .. automethod:: __init__

   
   .. rubric:: Methods

   .. autosummary::
   
      ~BarWriterMixin.__init__
      ~BarWriterMixin.bar
   
   

   
   
   