draugr.os\_utilities.cuda\_device
=================================

.. automodule:: draugr.os_utilities.cuda_device

   
   
   

   
   
   .. rubric:: Functions

   .. autosummary::
      :toctree:
   
      set_cuda_device_order
      set_cuda_visible_devices
   
   

   
   
   .. rubric:: Classes

   .. autosummary::
      :toctree:
      :template: custom_autosummary/class.rst
   
      DeviceOrderEnum
   
   

   
   
   



