draugr.torch\_utilities.sessions.model\_sessions.TorchTrainingSession
=====================================================================

.. currentmodule:: draugr.torch_utilities.sessions.model_sessions

.. autoclass:: TorchTrainingSession
   :members:
   :show-inheritance:
   :inherited-members:

   
   .. automethod:: __init__

   
   .. rubric:: Methods

   .. autosummary::
   
      ~TorchTrainingSession.__init__
   
   

   
   
   