draugr.os\_utilities.screen\_resolution
=======================================

.. automodule:: draugr.os_utilities.screen_resolution

   
   
   

   
   
   .. rubric:: Functions

   .. autosummary::
      :toctree:
   
      get_screen_resolution
      screen_res_tk
      screen_res_pygame
      screen_res_gtk
      screen_res_xlib
      screen_res_mac
      screen_res_win
   
   

   
   
   

   
   
   



