draugr.pygame\_utilities
========================

.. automodule:: draugr.pygame_utilities

   
   
   

   
   
   

   
   
   

   
   
   



.. rubric:: Modules

.. autosummary::
   :toctree:
   :template: custom_autosummary/module.rst
   :recursive:

   draugr.pygame_utilities.screen

