draugr.torch\_utilities.sessions.type\_sessions
===============================================

.. automodule:: draugr.torch_utilities.sessions.type_sessions

   
   
   

   
   
   

   
   
   .. rubric:: Classes

   .. autosummary::
      :toctree:
      :template: custom_autosummary/class.rst
   
      DefaultTypeSession
   
   

   
   
   



