draugr.torch\_utilities.sessions.jit\_sessions
==============================================

.. automodule:: draugr.torch_utilities.sessions.jit_sessions

   
   
   

   
   
   

   
   
   .. rubric:: Classes

   .. autosummary::
      :toctree:
      :template: custom_autosummary/class.rst
   
      TorchJitSession
      TorchIgnoreJitSession
   
   

   
   
   



