draugr.opencv\_utilities.namespaces.enums.DistanceTransformLabelTypeEnum
========================================================================

.. currentmodule:: draugr.opencv_utilities.namespaces.enums

.. autoclass:: DistanceTransformLabelTypeEnum
   :members:
   :show-inheritance:
   :inherited-members:

   
   .. automethod:: __init__

   
   

   
   
   .. rubric:: Attributes

   .. autosummary::
   
      ~DistanceTransformLabelTypeEnum.ccomp
      ~DistanceTransformLabelTypeEnum.pixel
   
   